.......
----------------------------------------------------------------------
Ran 7 tests in 0.002s

OK
Name               Stmts   Miss Branch BrPart  Cover   Missing
--------------------------------------------------------------
Diplomacy.py         104      0     72      3    98%   34->37, 85->49, 112->100
TestDiplomacy.py      41      0      2      1    98%   90->exit
--------------------------------------------------------------
TOTAL                145      0     74      4    98%
